[
    "1: last received message. 1: last received message. 1: last received message.",
    "2: last received message. 2: last received message. 2: last received message.",
    "3: last received message. 3: last received message. 3: last received message.",
    "4: last received message. 4: last received message. 4: last received message.",
    "5: last received message. 5: last received message. 5: last received message.",
    "6: last received message. 6: last received message. 6: last received message.",
    "7: last received message. 7: last received message. 7: last received message.",
    "8: last received message. 8: last received message. 8: last received message.",
    "9: last received message. 9: last received message. 9: last received message.",
    "10: last received message. 10: last received message. 10: last received message."
]
